<svg xmlns="http://www.w3.org/2000/svg" xmlns:xlink="http://www.w3.org/1999/xlink" width="1920" height="670" viewBox="0 0 1920 670">
  <defs>
    <linearGradient id="linear-gradient" x1="0.5" x2="0.5" y2="1" gradientUnits="objectBoundingBox">
      <stop offset="0"/>
      <stop offset="1" stop-opacity="0"/>
    </linearGradient>
  </defs>
  <rect id="Rectangle_2350" data-name="Rectangle 2350" width="670" height="1920" transform="translate(0 670) rotate(-90)" fill="url(#linear-gradient)"/>
</svg>
