[
    {
        "PodcastID": 1,
        "PodcastTitle": "Kim Foster",
        "PodcastDate": "Episode 1 | 07.15.2021",
        "PodcastContent": "Today my guest is Kim Foster, a James Beard award-winning food essayist and two-time nominee…",
        "PodcastContent2": "Today my guest is Kim Foster, a James Beard award-winning food essayist and two-time nominee. She writes deep dive essays into food as it intersects with addiction…",
        "PodcastImgUrl": "./assets/images/Mask Group 26.png",
        "PodcastImgUrl2": "./assets/images/Mask Group 31.png"
    },
    {
        "PodcastID": 2,
        "PodcastTitle": "James Trees",
        "PodcastDate": "Episode 2 | 10.14.2021",
        "PodcastContent": "Born and raised in Las Vegas, NV, James Trees’ culinary career began as a teenager at the Mirage…",
        "PodcastContent2": "James was Born and raised in Las Vegas, NV, James Trees’ culinary career began as a teenager at the Mirage Hotel & Casino on the Strip prior to attending the Culinary…",
        "PodcastImgUrl": "./assets/images/Mask Group 27.png",
        "PodcastImgUrl2": "./assets/images/Mask Group 32.png"
    },
    {
        "PodcastID": 3,
        "PodcastTitle": "Marc Vetri",
        "PodcastDate": "Episode 3 | 10.14.2021",
        "PodcastContent": "Marc Vetri is the chef and founder of Philadelphia’s critically acclaimed Vetri Cucina. In …",
        "PodcastContent2": "Marc Vetri is the chef and founder of Philadelphia’s critically acclaimed Vetri Cucina. In addition to his storied career in the kitchen, Marc is also the driving force…",
        "PodcastImgUrl": "./assets/images/Mask Group 28.png",
        "PodcastImgUrl2": "./assets/images/Mask Group 33.png"
    }
]